<?xml version="1.0" encoding="UTF-8" standalone="no"?>
<!-- Created with Inkscape (http://www.inkscape.org/) -->
<svg xmlns:dc="http://purl.org/dc/elements/1.1/" xmlns:cc="http://web.resource.org/cc/" xmlns:rdf="http://www.w3.org/1999/02/22-rdf-syntax-ns#" xmlns:svg="http://www.w3.org/2000/svg" xmlns="http://www.w3.org/2000/svg" xmlns:xlink="http://www.w3.org/1999/xlink" xmlns:sodipodi="http://sodipodi.sourceforge.net/DTD/sodipodi-0.dtd" xmlns:inkscape="http://www.inkscape.org/namespaces/inkscape" id="svg2" sodipodi:version="0.32" inkscape:version="0.45" width="500" height="400" version="1.0" sodipodi:docbase="/home/iseit/Desktop" sodipodi:docname="fenix-carlos.svg" inkscape:output_extension="org.inkscape.output.svg.inkscape" inkscape:export-filename="/home/iseit/Desktop/fenix-carlos.png" inkscape:export-xdpi="90" inkscape:export-ydpi="90" sodipodi:modified="TRUE">
  <defs id="defs5">
    <linearGradient id="linearGradient3162">
      <stop style="stop-color:#d08100;stop-opacity:1;" offset="0" id="stop3164"/>
      <stop id="stop3168" offset="0.5" style="stop-color:#d00000;stop-opacity:1;"/>
      <stop style="stop-color:#570000;stop-opacity:1;" offset="1" id="stop3166"/>
    </linearGradient>
    <linearGradient inkscape:collect="always" xlink:href="#linearGradient3162" id="linearGradient3142" x1="33.462383" y1="270.67598" x2="48.892673" y2="270.67599" gradientUnits="userSpaceOnUse"/>
    <linearGradient inkscape:collect="always" xlink:href="#linearGradient3162" id="linearGradient3144" x1="51.334396" y1="264.11801" x2="115.5725" y2="234.68513" gradientUnits="userSpaceOnUse"/>
    <linearGradient inkscape:collect="always" xlink:href="#linearGradient3162" id="linearGradient3146" x1="51.468521" y1="217.02615" x2="221.40178" y2="304.0451" gradientUnits="userSpaceOnUse"/>
    <linearGradient inkscape:collect="always" xlink:href="#linearGradient3162" id="linearGradient3148" x1="117.19522" y1="313.96191" x2="325.75494" y2="303.72437" gradientUnits="userSpaceOnUse"/>
    <linearGradient inkscape:collect="always" xlink:href="#linearGradient3162" id="linearGradient3150" x1="289.71953" y1="206.60152" x2="332.08682" y2="206.60152" gradientUnits="userSpaceOnUse"/>
    <linearGradient inkscape:collect="always" xlink:href="#linearGradient3162" id="linearGradient3152" x1="333.62622" y1="157.87767" x2="392.10043" y2="161.71674" gradientUnits="userSpaceOnUse"/>
    <linearGradient inkscape:collect="always" xlink:href="#linearGradient3162" id="linearGradient3154" x1="318.88707" y1="145.48134" x2="362.71072" y2="145.48134" gradientUnits="userSpaceOnUse"/>
    <linearGradient inkscape:collect="always" xlink:href="#linearGradient3162" id="linearGradient3156" x1="399.68232" y1="106.6625" x2="438.86908" y2="106.6625" gradientUnits="userSpaceOnUse"/>
    <linearGradient inkscape:collect="always" xlink:href="#linearGradient3162" id="linearGradient3158" x1="415.06525" y1="56.324226" x2="448.70633" y2="56.324226" gradientUnits="userSpaceOnUse"/>
    <linearGradient inkscape:collect="always" xlink:href="#linearGradient3162" id="linearGradient3160" x1="420.04208" y1="25.526927" x2="467.98975" y2="25.526928" gradientUnits="userSpaceOnUse"/>
    <filter inkscape:collect="always" id="filter3228">
      <feGaussianBlur inkscape:collect="always" stdDeviation="6.0050006" id="feGaussianBlur3230"/>
    </filter>
  </defs>
  <sodipodi:namedview inkscape:window-height="953" inkscape:window-width="1280" inkscape:pageshadow="2" inkscape:pageopacity="0.0" guidetolerance="10.0" gridtolerance="10.0" objecttolerance="10.0" borderopacity="1.0" bordercolor="#666666" pagecolor="#ffffff" id="base" inkscape:zoom="1.1051213" inkscape:cx="350.45708" inkscape:cy="238.63718" inkscape:window-x="0" inkscape:window-y="47" inkscape:current-layer="svg2" width="500px" height="400px"/>
  <g id="g2221" style="fill:#000000;fill-opacity:1;filter:url(#filter3228)" transform="translate(2,4)">
    <path sodipodi:nodetypes="ccccc" id="path2180" d="M 41.673692,262.69865 C 28.596735,273.60039 31.157149,271.79056 46.472532,277.73502 C 44.552996,269.57699 50.527718,272.62136 62.308706,267.81741 C 56.390136,267.33753 57.029982,268.45726 63.108513,264.1383 C 44.44615,266.48337 38.154542,270.21683 41.673692,262.69865 z " style="fill:#000000;fill-opacity:1;fill-rule:evenodd;stroke:#000000;stroke-width:1px;stroke-linecap:butt;stroke-linejoin:miter;stroke-opacity:1"/>
    <path id="path2183" d="M 123.8793,211.1971 C 114.12166,215.3561 96.206054,228.14009 98.285549,219.8221 C 91.289568,228.90247 51.233213,244.03591 43.441799,263.97835 C 72.554765,261.89885 73.102844,261.03373 64.223049,266.85335 C 95.415513,264.13401 114.76022,269.16797 122.78555,279.0096 C 114.78748,267.97227 115.70266,269.32283 127.41055,272.60335 C 108.69507,257.56698 90.411448,260.46599 111.72305,254.3846 C 106.28437,251.18537 108.00718,250.9743 116.0668,252.29085 C 109.66835,246.05236 108.17667,244.92869 129.5043,245.2596 C 110.14898,242.06037 114.60314,242.0477 125.97305,236.79085 C 107.89741,233.2717 115.34937,231.64391 134.1293,227.04085 C 113.97417,224.96135 145.87863,220.37007 144.3793,216.47835 C 142.72062,212.17296 85.002165,239.79822 123.8793,211.1971 z M 61.191799,256.4471 C 61.191799,256.4471 55.586542,261.24847 49.348049,261.72835 C 49.348048,261.72835 50.314427,257.08695 61.191799,256.4471 z " style="fill:#000000;fill-opacity:1;fill-rule:evenodd;stroke:#000000;stroke-width:1px;stroke-linecap:butt;stroke-linejoin:miter;stroke-opacity:1"/>
    <path id="path2185" d="M 384.6293,16.040847 C 318.79942,15.701517 331.56203,34.773822 270.91055,61.634597 C 235.39409,93.644658 220.22234,104.02174 228.97305,80.509597 C 221.34647,82.109211 199.08602,162.54982 169.97305,163.5096 C 169.97305,163.5096 177.37887,152.51014 185.47305,142.10335 C 180.19433,146.26235 175.55411,150.09437 174.7543,149.1346 C 173.56007,147.70152 188.79098,134.58606 197.78555,125.60335 C 174.75112,136.64068 160.48368,158.08157 152.3793,163.04085 C 153.97891,156.00255 158.66326,153.43775 160.53555,150.5721 C 155.57675,152.33167 153.64846,154.56097 150.1293,155.04085 C 174.3172,122.33514 199.82507,122.93986 212.1918,103.0721 C 195.87574,114.90924 185.38219,121.31097 180.53555,121.7596 C 184.21466,111.04218 192.75738,107.89114 194.4418,104.16585 C 179.56539,109.28461 153.9302,131.19198 151.2543,128.16585 C 169.01001,108.65056 202.71695,87.788528 213.6293,76.353347 C 177.79796,100.34756 129.19214,118.3595 129.66055,170.0721 C 123.10213,169.11233 114.34576,168.6791 103.7543,175.35335 C 113.99182,174.23362 119.26054,171.50449 124.3793,172.9471 C 118.62069,176.14633 117.25431,174.80466 113.5043,177.4471 C 138.45827,181.92602 152.7487,198.4678 154.59805,223.04085 C 152.03867,225.92015 131.60706,229.50001 120.53555,232.79085 C 121.01543,233.75062 132.69181,235.1971 132.6918,235.1971 L 121.5043,241.2596 L 142.9418,243.97835 L 114.1293,247.0096 L 128.3793,257.5721 L 105.5043,259.16585 C 147.89406,268.12369 153.96979,275.55062 158.28555,278.54085 C 147.24822,274.70177 140.53302,269.89573 135.2543,269.41585 C 137.46173,272.30908 144.86387,276.14826 148.22305,280.9471 C 140.4199,277.7019 122.44767,263.98734 120.84805,264.9471 C 122.91291,268.89094 137.49005,276.29613 135.41055,277.41585 C 129.09534,277.28489 122.62618,271.49475 120.0668,272.1346 C 117.82868,272.69413 149.79943,289.90294 145.16055,298.54085 C 131.24391,310.37799 104.37618,300.13461 101.8168,300.1346 C 97.735338,297.57522 96.532432,286.54361 93.973049,282.3846 C 81.117552,288.43413 81.815835,286.19768 77.816799,283.47835 C 74.289452,285.51296 50.623062,285.41585 45.504299,285.41585 C 41.53848,285.89573 40.080677,287.32892 35.441799,289.72835 C 36.041785,293.51478 23.051458,302.86478 38.004299,303.47835 C 30.326154,299.31935 37.749694,290.77539 41.348049,294.3846 C 43.907431,294.06468 45.995891,295.3269 48.223049,294.54085 C 47.263281,299.49965 48.042342,308.52762 50.629299,307.8221 C 49.829492,290.22635 69.689493,291.6953 63.441799,304.1346 C 69.52033,302.21506 68.621002,295.3726 72.535549,294.3846 C 84.852573,296.4641 86.281796,319.93515 63.598049,312.1346 C 77.674648,323.49186 81.17993,311.92095 92.379299,307.6346 C 105.33617,315.47271 105.00846,319.55616 85.973049,322.6971 C 101.55196,327.21172 105.38419,317.40612 111.8793,319.10335 C 121.50502,321.61864 121.68836,331.7628 110.28555,331.79085 C 108.8459,344.26784 120.35222,360.52146 124.3793,362.8221 C 116.70116,353.22442 116.94989,335.25552 120.0668,334.85335 C 120.8666,349.24987 135.12853,363.79617 137.97305,363.3221 C 137.97305,358.52326 136.667,359.79086 139.72305,359.79085 C 142.28243,362.99008 147.0608,366.78952 150.59805,365.72835 C 140.68045,359.00997 134.56421,341.52888 136.84805,341.0721 C 140.84708,340.27229 148.19442,357.34258 154.1293,355.79085 C 148.3707,350.992 142.44199,339.30524 145.0043,339.0096 C 153.64222,351.00671 165.53815,345.78247 176.6918,346.5096 C 160.05582,341.39083 151.64562,329.61222 153.66055,328.1346 C 158.45939,324.61545 177.53805,351.3308 221.47305,350.8221 C 183.40225,341.54434 179.17465,331.94153 175.72305,323.6346 C 182.76135,327.15375 194.23547,334.62427 196.84805,332.4471 C 183.73122,325.08888 167.03909,307.0031 169.8168,305.41585 C 175.02594,306.9894 178.84804,307.80903 181.3168,308.4471 C 175.23827,300.76896 167.61554,294.31373 171.41055,291.97835 C 177.16916,293.25804 178.73598,299.96756 184.34805,299.16585 C 188.82697,298.526 192.95474,298.06483 199.0668,295.66585 C 194.99152,292.63462 187.09945,286.71376 189.16055,284.9471 C 191.40001,283.02756 210.56415,292.25817 216.66055,284.4471 C 218.26016,282.20764 201.43387,275.23287 205.16055,273.10335 C 210.88368,272.80616 220.3892,276.76704 224.0668,279.66585 C 230.05495,277.68477 237.05244,277.83935 253.3168,276.60335 C 226.60349,272.04681 210.31672,265.71828 210.7543,263.8221 C 239.31285,262.71707 233.64065,273.16963 251.22305,266.6971 C 253.46251,264.13772 241.53492,264.06441 242.2543,260.9471 C 252.26285,265.83689 265.09068,256.96412 278.72305,255.0096 C 272.03017,252.75406 265.84936,249.19051 266.41055,246.3846 C 274.74186,243.86403 277.12304,247.45181 279.53555,245.5721 C 266.96096,241.37429 252.55227,220.46227 246.2543,208.79085 C 257.10618,217.74926 279.89459,239.1382 292.8168,239.5096 C 280.48784,232.72301 280.02506,230.02616 276.0043,225.2596 C 285.2793,224.24161 294.71732,230.41822 298.8793,227.1971 C 278.29332,225.38734 261.82709,185.45566 263.6918,184.9471 C 272.28814,190.7157 294.84199,202.33924 299.22305,201.2596 C 291.98403,197.52698 288.80155,194.87486 287.84805,192.16585 C 291.58067,191.03475 310.38656,186.30085 314.8793,183.1971 C 306.84851,182.51844 305.15612,183.1281 303.53555,180.9471 C 306.25018,181.06021 319.03556,178.55747 319.03555,176.6346 C 319.03555,174.93419 295.05627,172.89375 295.84805,171.1971 C 296.72744,169.31269 322.70246,170.72835 332.3168,170.72835 C 333.21364,169.0162 306.80934,159.72561 307.03555,157.91585 C 307.34452,155.4441 323.3956,157.93247 323.84805,156.0096 C 304.50654,154.73601 298.35721,149.68551 296.66055,147.1971 C 299.85285,145.17289 307.32077,144.51991 309.4418,143.35335 C 301.64371,143.379 291.24858,140.48722 292.8168,137.8221 C 294.93917,134.2152 317.87268,128.78066 322.72305,138.5721 C 325.43768,137.78033 334.8344,137.00477 349.7543,135.3846 C 350.43296,132.89619 335.07885,137.70396 322.41055,119.04085 C 324.84832,116.60308 358.66636,116.46729 361.91055,128.0096 C 361.79744,130.15869 353.59806,130.88459 353.59805,130.8846 C 373.16604,133.48612 391.51941,124.52656 400.47305,113.7596 C 376.94622,127.10655 352.64909,118.72065 340.16055,109.4471 C 354.86482,100.28521 369.25407,104.16427 380.0043,108.66585 C 385.09424,105.49877 402.66314,100.53627 417.2543,89.790847 C 390.94715,102.46516 380.28338,101.24473 343.34805,98.259597 C 361.67183,83.894658 376.85159,92.35746 380.47305,95.072097 C 401.51146,87.946182 410.7909,76.694655 427.1918,72.509597 C 410.63523,74.067176 395.95887,86.45487 378.8793,83.853347 C 386.83218,77.722807 396.88647,75.154262 399.03555,72.665847 C 388.73874,75.841789 349.29575,81.916453 327.6918,100.35335 C 364.70291,59.905794 371.83623,77.528222 374.0668,77.134597 C 388.43174,67.180938 408.18481,54.685787 415.1918,50.103347 C 400.48753,56.550603 380.8556,67.831295 377.09805,67.697097 C 345.42732,67.583987 328.69941,72.361576 315.6918,77.790847 C 350.98204,56.410841 370.19634,63.367422 372.0043,63.228347 C 405.93723,46.261883 409.00726,42.82662 434.53555,39.884597 C 408.06787,29.930938 377.59672,43.688408 376.9418,48.665847 C 411.77961,47.534749 349.20522,68.285512 360.6293,51.884597 C 357.2494,50.584634 319.82617,69.782868 313.4418,67.384597 C 316.72198,63.312646 319.12426,62.890998 323.53555,59.384597 C 314.31002,62.306557 286.14614,77.179779 277.9418,85.134597 C 299.09332,55.61295 343.59148,51.131286 348.97305,47.384597 C 343.31756,47.610817 333.35594,50.424473 329.1293,49.634597 C 351.97747,28.709292 378.0856,28.693697 381.09805,32.040847 C 382.11604,33.171945 372.79543,38.78067 369.1293,43.072097 C 390.62015,31.534902 406.8505,29.889628 411.03555,25.478347 C 340.34336,23.577351 348.44427,38.304017 297.28555,57.322097 C 297.28555,57.322097 300.80869,47.671335 323.3793,34.915847 C 328.35613,34.915847 325.77401,37.062872 323.1918,39.884597 C 345.58753,17.715085 375.61308,20.173739 384.6293,16.040847 z M 340.7543,77.259597 C 342.03923,77.231399 343.13067,77.268515 344.03555,77.353347 C 318.87635,103.60617 299.25872,109.70045 276.41055,106.7596 C 306.29337,102.8372 323.76476,91.274645 326.6293,85.509597 C 320.97382,83.926061 310.57549,92.294963 300.84805,95.009597 C 314.33614,80.952975 331.75982,77.456983 340.7543,77.259597 z M 287.5043,114.6971 C 279.81284,122.84101 273.7052,128.02942 261.9418,135.9471 C 268.39342,126.23363 275.39567,118.0669 287.5043,114.6971 z M 309.0668,122.29085 C 312.93405,122.32109 316.26741,123.50625 318.47305,126.4471 C 309.71625,125.64523 307.30985,124.90656 304.4418,126.66585 C 300.59609,130.7378 309.04395,127.41529 306.2543,130.0721 C 296.52685,127.35747 285.90293,134.8099 275.72305,137.0721 C 281.04755,132.50626 297.46505,122.20013 309.0668,122.29085 z M 268.6293,147.79085 C 282.09988,147.54142 297.19937,149.92042 298.5668,162.8846 C 290.64912,163.11082 287.03587,160.51814 284.09805,160.3846 C 293.14684,152.91935 282.97945,151.57545 256.28555,148.6346 C 259.84141,148.26757 264.13911,147.87399 268.6293,147.79085 z M 229.3168,168.16585 C 266.71914,190.80703 260.23578,189.26969 238.09805,178.8221 C 234.01778,176.89647 228.34865,177.1088 223.0668,175.35335 C 233.94417,175.03343 235.23537,174.72427 229.3168,168.16585 z M 271.0668,168.79085 C 295.04584,181.05203 303.6748,187.12264 268.34805,181.4471 C 284.50415,181.60706 284.66352,181.10787 271.0668,168.79085 z M 207.2543,189.7596 C 214.38121,189.71872 221.24782,190.37749 224.66055,191.1971 C 186.90967,194.55629 236.03867,194.40955 238.59805,214.8846 C 230.62789,209.21983 221.31836,201.76368 222.59805,208.3221 C 218.00135,205.63539 221.94794,197.58384 185.3168,194.3846 C 188.50825,190.99877 198.09112,189.81216 207.2543,189.7596 z M 248.34805,199.97835 C 254.58654,207.97641 256.66582,213.09518 257.78555,199.97835 C 259.25902,210.10615 264.4182,212.45247 263.5043,215.1971 C 262.54064,218.09122 254.84324,216.4892 248.34805,199.97835 z M 192.5043,204.5096 C 197.06214,204.52648 202.99213,204.99952 210.4418,206.0721 C 187.40737,208.47152 187.55916,206.07403 197.3168,214.0721 C 179.15156,212.28743 173.62125,204.97628 190.6293,204.54085 C 191.22458,204.52561 191.85318,204.50719 192.5043,204.5096 z M 191.3793,225.3221 C 195.51988,225.1674 202.46317,225.98702 209.78555,226.22835 C 198.58826,230.38735 187.72105,224.3037 205.3168,241.2596 C 185.3786,228.52431 184.47833,225.57994 191.3793,225.3221 z M 174.28555,234.04085 C 176.75915,234.03513 179.426,234.18341 182.28555,234.54085 C 168.8488,236.46039 165.94842,236.47286 177.78555,244.79085 C 177.78555,244.79085 164.04067,241.59593 149.0043,241.91585 C 149.0043,241.91585 156.97038,234.08092 174.28555,234.04085 z M 246.7543,235.5096 C 253.18539,249.55745 262.33692,251.75129 261.91055,252.4471 C 260.79734,254.26379 254.91876,254.17611 243.53555,246.85335 C 252.33342,248.45296 252.03302,249.90612 246.7543,235.5096 z M 209.78555,248.79085 C 236.66314,261.23587 239.14358,265.76492 207.8793,260.1346 C 221.79594,259.17483 220.82288,259.82817 209.78555,248.79085 z M 84.379299,290.85335 C 84.379299,290.85335 94.944919,292.12599 97.504299,297.8846 C 97.504299,297.8846 93.658988,299.16584 92.379299,299.16585 C 92.379299,299.16585 84.379299,292.77289 84.379299,290.85335 z " style="fill:#000000;fill-opacity:1;fill-rule:evenodd;stroke:#000000;stroke-width:1px;stroke-linecap:butt;stroke-linejoin:miter;stroke-opacity:1"/>
    <path sodipodi:nodetypes="ccccccccccc" id="path2187" d="M 173.92701,308.33049 C 187.04774,314.43842 190.68332,312.8313 177.77275,298.37683 C 189.98861,305.84207 194.25254,298.82224 205.82397,297.92439 C 203.78799,294.30488 196.88568,294.53631 192.70323,287.29207 C 205.82396,294.07866 209.60964,287.29207 221.20689,286.83963 C 277.08311,311.49756 302.23992,308.13345 383.40629,313.75976 C 330.2447,314.89086 313.05202,325.07073 265.54592,320.77256 C 284.54836,334.57195 288.31169,328.48572 297.21665,330.95244 C 288.84653,334.11951 254.91851,331.40488 249.71055,331.40488 C 242.01909,318.73659 218.03982,310.14025 187.7264,322.3561 L 173.92701,308.33049 z " style="fill:#000000;fill-opacity:1;fill-rule:evenodd;stroke:#000000;stroke-width:1px;stroke-linecap:butt;stroke-linejoin:miter;stroke-opacity:1"/>
    <path sodipodi:nodetypes="cccc" id="path2189" d="M 344.94897,193.86341 C 338.77818,196.84145 336.44854,211.70764 289.52519,209.925 C 288.62031,214.44939 318.48128,223.72439 333.18555,214.44939 C 284.33899,215.15677 335.44775,214.44939 344.94897,193.86341 z " style="fill:#000000;fill-opacity:1;fill-rule:evenodd;stroke:#000000;stroke-width:1px;stroke-linecap:butt;stroke-linejoin:miter;stroke-opacity:1"/>
    <path sodipodi:nodetypes="cccsc" id="path2191" d="M 374.58372,152.0128 C 363.73002,152.5694 360.33189,162.87134 333.41177,162.64512 C 367.7148,175.62356 398.08634,152.91686 420.95872,148.39329 C 412.55173,146.79196 379.31425,157.70445 367.15451,160.14952 C 358.70064,161.84942 366.51228,156.65156 374.58372,152.0128 z " style="fill:#000000;fill-opacity:1;fill-rule:evenodd;stroke:#000000;stroke-width:1px;stroke-linecap:butt;stroke-linejoin:miter;stroke-opacity:1"/>
    <path sodipodi:nodetypes="ccscc" id="path2193" d="M 318.7075,147.03597 C 343.05551,152.08112 343.59165,129.39085 380.69165,138.89207 C 360.53115,138.60912 344.84802,143.9145 342.45833,147.62856 C 340.98548,149.91766 347.22781,150.3397 352.64043,152.23902 C 344.27031,155.40609 317.5764,152.23902 318.7075,147.03597 z " style="fill:#000000;fill-opacity:1;fill-rule:evenodd;stroke:#000000;stroke-width:1px;stroke-linecap:butt;stroke-linejoin:miter;stroke-opacity:1"/>
    <path sodipodi:nodetypes="cccc" id="path2195" d="M 399.46787,121.47317 C 417.72531,104.36806 443.80689,92.064623 455.57031,90.933526 C 409.4026,112.21516 420.05384,112.6506 436.79409,106.7689 C 433.42574,111.12793 409.42153,121.24695 399.46787,121.47317 z " style="fill:#000000;fill-opacity:1;fill-rule:evenodd;stroke:#000000;stroke-width:1px;stroke-linecap:butt;stroke-linejoin:miter;stroke-opacity:1"/>
    <path sodipodi:nodetypes="cccc" id="path2197" d="M 414.8508,61.298769 C 442.08667,43.870226 463.10248,51.754709 463.48799,55.417062 C 447.87884,49.761574 427.97153,54.964622 455.79653,61.298769 C 434.70641,59.79663 427.97153,59.036574 414.8508,61.298769 z " style="fill:#000000;fill-opacity:1;fill-rule:evenodd;stroke:#000000;stroke-width:1px;stroke-linecap:butt;stroke-linejoin:miter;stroke-opacity:1"/>
    <path sodipodi:nodetypes="cccc" id="path2199" d="M 419.82763,16.733525 C 439.10337,13.596742 480.68068,26.008525 479.54958,30.985354 C 455.18233,23.14599 432.28568,19.648456 466.20263,33.699988 C 451.9508,35.735964 439.28251,21.936574 419.82763,16.733525 z " style="fill:#000000;fill-opacity:1;fill-rule:evenodd;stroke:#000000;stroke-width:1px;stroke-linecap:butt;stroke-linejoin:miter;stroke-opacity:1"/>
  </g>
  <path sodipodi:type="arc" style="opacity:1;fill:#ffffff;fill-opacity:1;fill-rule:nonzero;stroke:none;stroke-width:0.30000001;stroke-linecap:round;stroke-linejoin:round;stroke-miterlimit:4;stroke-dasharray:none;stroke-opacity:1" id="path2194" sodipodi:cx="57.007317" sodipodi:cy="257.93414" sodipodi:rx="8.1439028" sodipodi:ry="5.4292684" d="M 48.864276,258.01315 A 8.1439028,5.4292684 0 1 1 48.865463,258.05593" sodipodi:start="3.1270398" sodipodi:end="9.4023437" sodipodi:open="true" transform="matrix(0.9230772,-0.3846146,0.3846146,0.9230772,-94.820088,41.766857)"/>
  <path style="fill:url(#linearGradient3142);fill-rule:evenodd;stroke:#000000;stroke-width:2;stroke-linecap:butt;stroke-linejoin:miter;stroke-opacity:1;fill-opacity:1.0;stroke-miterlimit:4;stroke-dasharray:none" d="M 42.388143,263.1578 C 29.311186,274.05954 31.8716,272.24971 47.186983,278.19417 C 45.267447,270.03614 51.242169,273.08051 63.023157,268.27656 C 57.104587,267.79668 57.744433,268.91641 63.822964,264.59745 C 45.160601,266.94252 38.868993,270.67598 42.388143,263.1578 z " id="path2161" sodipodi:nodetypes="ccccc"/>
  <path style="fill:url(#linearGradient3144);fill-rule:evenodd;stroke:#000000;stroke-width:2;stroke-linecap:butt;stroke-linejoin:miter;stroke-opacity:1;fill-opacity:1.0;stroke-miterlimit:4;stroke-dasharray:none" d="M 124.59375 211.65625 C 114.83611 215.81525 96.920505 228.59924 99 220.28125 C 92.004019 229.36162 51.947664 244.49506 44.15625 264.4375 C 73.269216 262.358 73.817295 261.49288 64.9375 267.3125 C 96.129964 264.59316 115.47467 269.62712 123.5 279.46875 C 115.50193 268.43142 116.41711 269.78198 128.125 273.0625 C 109.40952 258.02613 91.125899 260.92514 112.4375 254.84375 C 106.99882 251.64452 108.72163 251.43345 116.78125 252.75 C 110.3828 246.51151 108.89112 245.38784 130.21875 245.71875 C 110.86343 242.51952 115.31759 242.50685 126.6875 237.25 C 108.61186 233.73085 116.06382 232.10306 134.84375 227.5 C 114.68862 225.4205 146.59308 220.82922 145.09375 216.9375 C 143.43507 212.63211 85.716616 240.25737 124.59375 211.65625 z M 61.90625 256.90625 C 61.90625 256.90625 56.300993 261.70762 50.0625 262.1875 C 50.062499 262.1875 51.028878 257.5461 61.90625 256.90625 z " id="path2163"/>
  <path style="fill:url(#linearGradient3146);fill-rule:evenodd;stroke:#000000;stroke-width:2;stroke-linecap:butt;stroke-linejoin:miter;stroke-opacity:1;fill-opacity:1.0;stroke-miterlimit:4;stroke-dasharray:none" d="M 385.34375 16.5 C 319.51387 16.16067 332.27648 35.232975 271.625 62.09375 C 236.10854 94.103811 220.93679 104.48089 229.6875 80.96875 C 222.06092 82.568364 199.80047 163.00897 170.6875 163.96875 C 170.6875 163.96875 178.09332 152.96929 186.1875 142.5625 C 180.90878 146.7215 176.26856 150.55352 175.46875 149.59375 C 174.27452 148.16067 189.50543 135.04521 198.5 126.0625 C 175.46557 137.09983 161.19813 158.54072 153.09375 163.5 C 154.69336 156.4617 159.37771 153.8969 161.25 151.03125 C 156.2912 152.79082 154.36291 155.02012 150.84375 155.5 C 175.03165 122.79429 200.53952 123.39901 212.90625 103.53125 C 196.59019 115.36839 186.09664 121.77012 181.25 122.21875 C 184.92911 111.50133 193.47183 108.35029 195.15625 104.625 C 180.27984 109.74376 154.64465 131.65113 151.96875 128.625 C 169.72446 109.10971 203.4314 88.247681 214.34375 76.8125 C 178.51241 100.80671 129.90659 118.81865 130.375 170.53125 C 123.81658 169.57148 115.06021 169.13825 104.46875 175.8125 C 114.70627 174.69277 119.97499 171.96364 125.09375 173.40625 C 119.33514 176.60548 117.96876 175.26381 114.21875 177.90625 C 139.17272 182.38517 153.46315 198.92695 155.3125 223.5 C 152.75312 226.3793 132.32151 229.95916 121.25 233.25 C 121.72988 234.20977 133.40626 235.65625 133.40625 235.65625 L 122.21875 241.71875 L 143.65625 244.4375 L 114.84375 247.46875 L 129.09375 258.03125 L 106.21875 259.625 C 148.60851 268.58284 154.68424 276.00977 159 279 C 147.96267 275.16092 141.24747 270.35488 135.96875 269.875 C 138.17618 272.76823 145.57832 276.60741 148.9375 281.40625 C 141.13435 278.16105 123.16212 264.44649 121.5625 265.40625 C 123.62736 269.35009 138.2045 276.75528 136.125 277.875 C 129.80979 277.74404 123.34063 271.9539 120.78125 272.59375 C 118.54313 273.15328 150.51388 290.36209 145.875 299 C 131.95836 310.83714 105.09063 300.59376 102.53125 300.59375 C 98.449789 298.03437 97.246883 287.00276 94.6875 282.84375 C 81.832003 288.89328 82.530286 286.65683 78.53125 283.9375 C 75.003903 285.97211 51.337513 285.875 46.21875 285.875 C 42.252931 286.35488 40.795128 287.78807 36.15625 290.1875 C 36.756236 293.97393 23.765909 303.32393 38.71875 303.9375 C 31.040605 299.7785 38.464145 291.23454 42.0625 294.84375 C 44.621882 294.52383 46.710342 295.78605 48.9375 295 C 47.977732 299.9588 48.756793 308.98677 51.34375 308.28125 C 50.543943 290.6855 70.403944 292.15445 64.15625 304.59375 C 70.234781 302.67421 69.335453 295.83175 73.25 294.84375 C 85.567024 296.92325 86.996247 320.3943 64.3125 312.59375 C 78.389099 323.95101 81.894381 312.3801 93.09375 308.09375 C 106.05062 315.93186 105.72291 320.01531 86.6875 323.15625 C 102.26641 327.67087 106.09864 317.86527 112.59375 319.5625 C 122.21947 322.07779 122.40281 332.22195 111 332.25 C 109.56035 344.72699 121.06667 360.98061 125.09375 363.28125 C 117.41561 353.68357 117.66434 335.71467 120.78125 335.3125 C 121.58105 349.70902 135.84298 364.25532 138.6875 363.78125 C 138.6875 358.98241 137.38145 360.25001 140.4375 360.25 C 142.99688 363.44923 147.77525 367.24867 151.3125 366.1875 C 141.3949 359.46912 135.27866 341.98803 137.5625 341.53125 C 141.56153 340.73144 148.90887 357.80173 154.84375 356.25 C 149.08515 351.45115 143.15644 339.76439 145.71875 339.46875 C 154.35667 351.46586 166.2526 346.24162 177.40625 346.96875 C 160.77027 341.84998 152.36007 330.07137 154.375 328.59375 C 159.17384 325.0746 178.2525 351.78995 222.1875 351.28125 C 184.1167 342.00349 179.8891 332.40068 176.4375 324.09375 C 183.4758 327.6129 194.94992 335.08342 197.5625 332.90625 C 184.44567 325.54803 167.75354 307.46225 170.53125 305.875 C 175.74039 307.44855 179.56249 308.26818 182.03125 308.90625 C 175.95272 301.22811 168.32999 294.77288 172.125 292.4375 C 177.88361 293.71719 179.45043 300.42671 185.0625 299.625 C 189.54142 298.98515 193.66919 298.52398 199.78125 296.125 C 195.70597 293.09377 187.8139 287.17291 189.875 285.40625 C 192.11446 283.48671 211.2786 292.71732 217.375 284.90625 C 218.97461 282.66679 202.14832 275.69202 205.875 273.5625 C 211.59813 273.26531 221.10365 277.22619 224.78125 280.125 C 230.7694 278.14392 237.76689 278.2985 254.03125 277.0625 C 227.31794 272.50596 211.03117 266.17743 211.46875 264.28125 C 240.0273 263.17622 234.3551 273.62878 251.9375 267.15625 C 254.17696 264.59687 242.24937 264.52356 242.96875 261.40625 C 252.9773 266.29604 265.80513 257.42327 279.4375 255.46875 C 272.74462 253.21321 266.56381 249.64966 267.125 246.84375 C 275.45631 244.32318 277.83749 247.91096 280.25 246.03125 C 267.67541 241.83344 253.26672 220.92142 246.96875 209.25 C 257.82063 218.20841 280.60904 239.59735 293.53125 239.96875 C 281.20229 233.18216 280.73951 230.48531 276.71875 225.71875 C 285.99375 224.70076 295.43177 230.87737 299.59375 227.65625 C 279.00777 225.84649 262.54154 185.91481 264.40625 185.40625 C 273.00259 191.17485 295.55644 202.79839 299.9375 201.71875 C 292.69848 197.98613 289.516 195.33401 288.5625 192.625 C 292.29512 191.4939 311.10101 186.76 315.59375 183.65625 C 307.56296 182.97759 305.87057 183.58725 304.25 181.40625 C 306.96463 181.51936 319.75001 179.01662 319.75 177.09375 C 319.75 175.39334 295.77072 173.3529 296.5625 171.65625 C 297.44189 169.77184 323.41691 171.1875 333.03125 171.1875 C 333.92809 169.47535 307.52379 160.18476 307.75 158.375 C 308.05897 155.90325 324.11005 158.39162 324.5625 156.46875 C 305.22099 155.19516 299.07166 150.14466 297.375 147.65625 C 300.5673 145.63204 308.03522 144.97906 310.15625 143.8125 C 302.35816 143.83815 291.96303 140.94637 293.53125 138.28125 C 295.65362 134.67435 318.58713 129.23981 323.4375 139.03125 C 326.15213 138.23948 335.54885 137.46392 350.46875 135.84375 C 351.14741 133.35534 335.7933 138.16311 323.125 119.5 C 325.56277 117.06223 359.38081 116.92644 362.625 128.46875 C 362.51189 130.61784 354.31251 131.34374 354.3125 131.34375 C 373.88049 133.94527 392.23386 124.98571 401.1875 114.21875 C 377.66067 127.5657 353.36354 119.1798 340.875 109.90625 C 355.57927 100.74436 369.96852 104.62342 380.71875 109.125 C 385.80869 105.95792 403.37759 100.99542 417.96875 90.25 C 391.6616 102.92431 380.99783 101.70388 344.0625 98.71875 C 362.38628 84.353811 377.56604 92.816613 381.1875 95.53125 C 402.22591 88.405335 411.50535 77.153808 427.90625 72.96875 C 411.34968 74.526329 396.67332 86.914023 379.59375 84.3125 C 387.54663 78.18196 397.60092 75.613415 399.75 73.125 C 389.45319 76.300942 350.0102 82.375606 328.40625 100.8125 C 365.41736 60.364947 372.55068 77.987375 374.78125 77.59375 C 389.14619 67.640091 408.89926 55.14494 415.90625 50.5625 C 401.20198 57.009756 381.57005 68.290448 377.8125 68.15625 C 346.14177 68.04314 329.41386 72.820729 316.40625 78.25 C 351.69649 56.869994 370.91079 63.826575 372.71875 63.6875 C 406.65168 46.721036 409.72171 43.285773 435.25 40.34375 C 408.78232 30.390091 378.31117 44.147561 377.65625 49.125 C 412.49406 47.993902 349.91967 68.744665 361.34375 52.34375 C 357.96385 51.043787 320.54062 70.242021 314.15625 67.84375 C 317.43643 63.771799 319.83871 63.350151 324.25 59.84375 C 315.02447 62.76571 286.86059 77.638932 278.65625 85.59375 C 299.80777 56.072103 344.30593 51.590439 349.6875 47.84375 C 344.03201 48.06997 334.07039 50.883626 329.84375 50.09375 C 352.69192 29.168445 378.80005 29.15285 381.8125 32.5 C 382.83049 33.631098 373.50988 39.239823 369.84375 43.53125 C 391.3346 31.994055 407.56495 30.348781 411.75 25.9375 C 341.05781 24.036504 349.15872 38.76317 298 57.78125 C 298 57.78125 301.52314 48.130488 324.09375 35.375 C 329.07058 35.375 326.48846 37.522025 323.90625 40.34375 C 346.30198 18.174238 376.32753 20.632892 385.34375 16.5 z M 341.46875 77.71875 C 342.75368 77.690552 343.84512 77.727668 344.75 77.8125 C 319.5908 104.06532 299.97317 110.1596 277.125 107.21875 C 307.00782 103.29635 324.47921 91.733798 327.34375 85.96875 C 321.68827 84.385214 311.28994 92.754116 301.5625 95.46875 C 315.05059 81.412128 332.47427 77.916136 341.46875 77.71875 z M 288.21875 115.15625 C 280.52729 123.30016 274.41965 128.48857 262.65625 136.40625 C 269.10787 126.69278 276.11012 118.52605 288.21875 115.15625 z M 309.78125 122.75 C 313.6485 122.78024 316.98186 123.9654 319.1875 126.90625 C 310.4307 126.10438 308.0243 125.36571 305.15625 127.125 C 301.31054 131.19695 309.7584 127.87444 306.96875 130.53125 C 297.2413 127.81662 286.61738 135.26905 276.4375 137.53125 C 281.762 132.96541 298.1795 122.65928 309.78125 122.75 z M 269.34375 148.25 C 282.81433 148.00057 297.91382 150.37957 299.28125 163.34375 C 291.36357 163.56997 287.75032 160.97729 284.8125 160.84375 C 293.86129 153.3785 283.6939 152.0346 257 149.09375 C 260.55586 148.72672 264.85356 148.33314 269.34375 148.25 z M 230.03125 168.625 C 267.43359 191.26618 260.95023 189.72884 238.8125 179.28125 C 234.73223 177.35562 229.0631 177.56795 223.78125 175.8125 C 234.65862 175.49258 235.94982 175.18342 230.03125 168.625 z M 271.78125 169.25 C 295.76029 181.51118 304.38925 187.58179 269.0625 181.90625 C 285.2186 182.06621 285.37797 181.56702 271.78125 169.25 z M 207.96875 190.21875 C 215.09566 190.17787 221.96227 190.83664 225.375 191.65625 C 187.62412 195.01544 236.75312 194.8687 239.3125 215.34375 C 231.34234 209.67898 222.03281 202.22283 223.3125 208.78125 C 218.7158 206.09454 222.66239 198.04299 186.03125 194.84375 C 189.2227 191.45792 198.80557 190.27131 207.96875 190.21875 z M 249.0625 200.4375 C 255.30099 208.43556 257.38027 213.55433 258.5 200.4375 C 259.97347 210.5653 265.13265 212.91162 264.21875 215.65625 C 263.25509 218.55037 255.55769 216.94835 249.0625 200.4375 z M 193.21875 204.96875 C 197.77659 204.98563 203.70658 205.45867 211.15625 206.53125 C 188.12182 208.93067 188.27361 206.53318 198.03125 214.53125 C 179.86601 212.74658 174.3357 205.43543 191.34375 205 C 191.93903 204.98476 192.56763 204.96634 193.21875 204.96875 z M 192.09375 225.78125 C 196.23433 225.62655 203.17762 226.44617 210.5 226.6875 C 199.30271 230.8465 188.4355 224.76285 206.03125 241.71875 C 186.09305 228.98346 185.19278 226.03909 192.09375 225.78125 z M 175 234.5 C 177.4736 234.49428 180.14045 234.64256 183 235 C 169.56325 236.91954 166.66287 236.93201 178.5 245.25 C 178.5 245.25 164.75512 242.05508 149.71875 242.375 C 149.71875 242.375 157.68483 234.54007 175 234.5 z M 247.46875 235.96875 C 253.89984 250.0166 263.05137 252.21044 262.625 252.90625 C 261.51179 254.72294 255.63321 254.63526 244.25 247.3125 C 253.04787 248.91211 252.74747 250.36527 247.46875 235.96875 z M 210.5 249.25 C 237.37759 261.69502 239.85803 266.22407 208.59375 260.59375 C 222.51039 259.63398 221.53733 260.28732 210.5 249.25 z M 85.09375 291.3125 C 85.09375 291.3125 95.65937 292.58514 98.21875 298.34375 C 98.21875 298.34375 94.373439 299.62499 93.09375 299.625 C 93.09375 299.625 85.09375 293.23204 85.09375 291.3125 z " id="path2167"/>
  <path style="fill:url(#linearGradient3148);fill-rule:evenodd;stroke:#000000;stroke-width:2;stroke-linecap:butt;stroke-linejoin:miter;stroke-opacity:1;fill-opacity:1.0;stroke-miterlimit:4;stroke-dasharray:none" d="M 174.64146,308.78964 C 187.76219,314.89757 191.39777,313.29045 178.4872,298.83598 C 190.70306,306.30122 194.96699,299.28139 206.53842,298.38354 C 204.50244,294.76403 197.60013,294.99546 193.41768,287.75122 C 206.53841,294.53781 210.32409,287.75122 221.92134,287.29878 C 277.79756,311.95671 302.95437,308.5926 384.12074,314.21891 C 330.95915,315.35001 313.76647,325.52988 266.26037,321.23171 C 285.26281,335.0311 289.02614,328.94487 297.9311,331.41159 C 289.56098,334.57866 255.63296,331.86403 250.425,331.86403 C 242.73354,319.19574 218.75427,310.5994 188.44085,322.81525 L 174.64146,308.78964 z " id="path2182" sodipodi:nodetypes="ccccccccccc"/>
  <path style="fill:url(#linearGradient3150);fill-rule:evenodd;stroke:#000000;stroke-width:2;stroke-linecap:butt;stroke-linejoin:miter;stroke-opacity:1;fill-opacity:1.0;stroke-miterlimit:4;stroke-dasharray:none" d="M 345.66342,194.32256 C 339.49263,197.3006 337.16299,212.16679 290.23964,210.38415 C 289.33476,214.90854 319.19573,224.18354 333.9,214.90854 C 285.05344,215.61592 336.1622,214.90854 345.66342,194.32256 z " id="path2184" sodipodi:nodetypes="cccc"/>
  <path style="fill:url(#linearGradient3152);fill-rule:evenodd;stroke:#000000;stroke-width:2;stroke-linecap:butt;stroke-linejoin:miter;stroke-opacity:1;fill-opacity:1.0;stroke-miterlimit:4;stroke-dasharray:none" d="M 375.29817,152.47195 C 364.44447,153.02855 361.04634,163.33049 334.12622,163.10427 C 368.42925,176.08271 398.80079,153.37601 421.67317,148.85244 C 413.26618,147.25111 380.0287,158.1636 367.86896,160.60867 C 359.41509,162.30857 367.22673,157.11071 375.29817,152.47195 z " id="path2186" sodipodi:nodetypes="cccsc"/>
  <path style="fill:url(#linearGradient3154);fill-rule:evenodd;stroke:#000000;stroke-width:2;stroke-linecap:butt;stroke-linejoin:miter;stroke-opacity:1;fill-opacity:1.0;stroke-miterlimit:4;stroke-dasharray:none" d="M 319.42195,147.49512 C 343.76996,152.54027 344.3061,129.85 381.4061,139.35122 C 361.2456,139.06827 345.56247,144.37365 343.17278,148.08771 C 341.69993,150.37681 347.94226,150.79885 353.35488,152.69817 C 344.98476,155.86524 318.29085,152.69817 319.42195,147.49512 z " id="path2188" sodipodi:nodetypes="ccscc"/>
  <path style="fill:url(#linearGradient3156);fill-rule:evenodd;stroke:#000000;stroke-width:2;stroke-linecap:butt;stroke-linejoin:miter;stroke-opacity:1;fill-opacity:1.0;stroke-miterlimit:4;stroke-dasharray:none" d="M 400.18232,121.93232 C 418.43976,104.82721 444.52134,92.523776 456.28476,91.392679 C 410.11705,112.67431 420.76829,113.10975 437.50854,107.22805 C 434.14019,111.58708 410.13598,121.7061 400.18232,121.93232 z " id="path2200" sodipodi:nodetypes="cccc"/>
  <path style="fill:url(#linearGradient3158);fill-rule:evenodd;stroke:#000000;stroke-width:2;stroke-linecap:butt;stroke-linejoin:miter;stroke-opacity:1;fill-opacity:1.0;stroke-miterlimit:4;stroke-dasharray:none" d="M 415.56525,61.757922 C 442.80112,44.329379 463.81693,52.213862 464.20244,55.876215 C 448.59329,50.220727 428.68598,55.423775 456.51098,61.757922 C 435.42086,60.255783 428.68598,59.495727 415.56525,61.757922 z " id="path2202" sodipodi:nodetypes="cccc"/>
  <path style="fill:url(#linearGradient3160);fill-rule:evenodd;stroke:#000000;stroke-width:2;stroke-linecap:butt;stroke-linejoin:miter;stroke-opacity:1;fill-opacity:1.0;stroke-miterlimit:4;stroke-dasharray:none" d="M 420.54208,17.192678 C 439.81782,14.055895 481.39513,26.467678 480.26403,31.444507 C 455.89678,23.605143 433.00013,20.107609 466.91708,34.159141 C 452.66525,36.195117 439.99696,22.395727 420.54208,17.192678 z " id="path2204" sodipodi:nodetypes="cccc"/>
  <metadata>
    <rdf:RDF>
      <cc:Work>
        <dc:format>image/svg+xml</dc:format>
        <dc:type rdf:resource="http://purl.org/dc/dcmitype/StillImage"/>
        <cc:license rdf:resource="http://creativecommons.org/licenses/publicdomain/"/>
        <dc:publisher>
          <cc:Agent rdf:about="http://openclipart.org/">
            <dc:title>Open Clip Art Library</dc:title>
          </cc:Agent>
        </dc:publisher>
        <dc:title>Fenix</dc:title>
        <dc:date>2011-07-19T13:58:26</dc:date>
        <dc:description>Ave Fenix</dc:description>
        <dc:source>http://openclipart.org/detail/150415/fenix-by-tatica</dc:source>
        <dc:creator>
          <cc:Agent>
            <dc:title>tatica</dc:title>
          </cc:Agent>
        </dc:creator>
        <dc:subject>
          <rdf:Bag>
            <rdf:li>ave</rdf:li>
            <rdf:li>clip art</rdf:li>
            <rdf:li>clipart</rdf:li>
            <rdf:li>fenix</rdf:li>
            <rdf:li>red</rdf:li>
          </rdf:Bag>
        </dc:subject>
      </cc:Work>
      <cc:License rdf:about="http://creativecommons.org/licenses/publicdomain/">
        <cc:permits rdf:resource="http://creativecommons.org/ns#Reproduction"/>
        <cc:permits rdf:resource="http://creativecommons.org/ns#Distribution"/>
        <cc:permits rdf:resource="http://creativecommons.org/ns#DerivativeWorks"/>
      </cc:License>
    </rdf:RDF>
  </metadata>
</svg>
